{
    "key": "group_5e871e89449da",
    "title": "Produkt bearbeiten",
    "fields": [
        {
            "key": "field_5e871e92b5ef3",
            "label": "Beschreibung",
            "name": "description",
            "type": "wysiwyg",
            "instructions": "Die Beschreibung erscheint oben im Kopfbereich der Seite.",
            "required": 0,
            "conditional_logic": 0,
            "wrapper": {
                "width": "100",
                "class": "",
                "id": ""
            },
            "default_value": "",
            "tabs": "all",
            "toolbar": "full",
            "media_upload": 0,
            "delay": 0
        },
        {
            "key": "field_5e871ef2b5ef4",
            "label": "Seiteninhalt",
            "name": "content",
            "type": "clone",
            "instructions": "",
            "required": 0,
            "conditional_logic": 0,
            "wrapper": {
                "width": "",
                "class": "",
                "id": ""
            },
            "clone": [
                "group_5d88b952b2c18"
            ],
            "display": "seamless",
            "layout": "block",
            "prefix_label": 0,
            "prefix_name": 0
        }
    ],
    "location": [
        [
            {
                "param": "post_type",
                "operator": "==",
                "value": "hm_master_products"
            }
        ]
    ],
    "menu_order": 0,
    "position": "normal",
    "style": "default",
    "label_placement": "top",
    "instruction_placement": "label",
    "hide_on_screen": [
        "the_content"
    ],
    "active": 1,
    "description": "",
    "modified": 1588230396
}
